[gd_scene load_steps=5 format=2]

[ext_resource path="res://ball/bola2-b.png" type="Texture" id=1]
[ext_resource path="res://ball/ball.gd" type="Script" id=2]

[sub_resource type="PhysicsMaterial" id=1]
friction = 0.0
bounce = 1.0

[sub_resource type="CircleShape2D" id=2]
radius = 8.0

[node name="Ball" type="RigidBody2D"]
physics_material_override = SubResource( 1 )
contacts_reported = 2
contact_monitor = true
script = ExtResource( 2 )

[node name="BallSprite" type="Sprite" parent="."]
texture = ExtResource( 1 )

[node name="BallCollision" type="CollisionShape2D" parent="."]
shape = SubResource( 2 )
